<?xml version="1.0" encoding="UTF-8"?>
<svg width="179px" height="48px" viewBox="0 0 179 48" version="1.1" xmlns="http://www.w3.org/2000/svg" xmlns:xlink="http://www.w3.org/1999/xlink">
    <!-- Generator: Sketch 42 (36781) - http://www.bohemiancoding.com/sketch -->
    <title>Cemex</title>
    <desc>Created with Sketch.</desc>
    <defs></defs>
    <g id="Page-1" stroke="none" stroke-width="1" fill="none" fill-rule="evenodd">
        <g id="Cemex">
            <path d="M82.916,28.514 L68.088,28.514 C68.088,28.514 62.98,28.478 62.98,33.445 L62.98,42.384 C62.98,42.384 62.731,47.421 68.052,47.421 L82.88,47.421 L82.88,42.384 L69.613,42.384 C69.613,42.384 68.088,42.455 68.088,40.717 L68.088,34.934 C68.088,34.934 68.017,33.445 69.648,33.445 L82.916,33.445 L82.916,28.514" id="Fill-2" fill="#003875"></path>
            <path d="M105.122,28.514 L89.23,28.514 C89.23,28.514 84.157,28.478 84.157,33.445 L84.157,42.384 C84.157,42.384 83.873,47.421 89.23,47.421 L105.086,47.421 L105.086,42.384 L90.755,42.384 C90.755,42.384 89.23,42.455 89.23,40.717 L89.23,34.934 C89.23,34.934 89.159,33.445 90.79,33.445 L105.122,33.445 L105.122,28.514" id="Fill-3" fill="#003875"></path>
            <polygon id="Fill-4" fill="#003875" points="92.706 40.113 105.086 40.113 105.086 36.105 92.706 36.105"></polygon>
            <path d="M153.366,28.514 L137.474,28.514 C137.474,28.514 132.401,28.478 132.401,33.445 L132.401,42.384 C132.401,42.384 132.117,47.421 137.474,47.421 L153.366,47.421 L153.366,42.384 L139.034,42.384 C139.034,42.384 137.474,42.455 137.474,40.717 L137.474,34.934 C137.474,34.934 137.438,33.445 139.034,33.445 L153.366,33.445 L153.366,28.514" id="Fill-5" fill="#003875"></path>
            <polygon id="Fill-6" fill="#003875" points="140.985 40.113 153.33 40.113 153.33 36.105 140.985 36.105"></polygon>
            <path d="M125.732,28.514 L106.718,28.514 L106.718,47.421 L111.755,47.421 L111.755,33.515 L116.225,33.515 L116.225,47.421 L121.262,47.421 L121.262,33.515 L125.732,33.515 L125.732,47.421 L130.733,47.421 L130.733,33.409 C130.733,33.409 131.017,28.514 125.732,28.514" id="Fill-7" fill="#003875"></path>
            <polyline id="Fill-8" fill="#003875" points="178.906 28.514 173.55 28.514 173.55 31.21 166.81 35.005 160.07 31.21 160.07 28.514 154.714 28.514 154.714 33.409 161.808 37.95 154.714 42.526 154.714 47.421 160.07 47.421 160.07 44.725 166.81 40.929 173.55 44.725 173.55 47.421 178.906 47.421 178.906 42.526 171.812 37.95 178.906 33.409 178.906 28.514"></polyline>
            <polyline id="Fill-9" fill="#EE3D42" points="17.467 47.35 56.914 0.561 39.78 0.561 0.369 47.35 17.467 47.35"></polyline>
            <polyline id="Fill-10" fill="#003875" points="43.044 47.35 82.455 0.561 65.356 0.561 25.945 47.35 43.044 47.35"></polyline>
        </g>
    </g>
</svg>