<?xml version="1.0" encoding="UTF-8"?>
<svg width="17px" height="17px" viewBox="0 0 17 17" version="1.1" xmlns="http://www.w3.org/2000/svg" xmlns:xlink="http://www.w3.org/1999/xlink">
    <!-- Generator: Sketch 42 (36781) - http://www.bohemiancoding.com/sketch -->
    <title>icons/light over dark/lock</title>
    <desc>Created with Sketch.</desc>
    <defs>
        <rect id="path-1" x="0.10141226" y="6.28571429" width="13.8461538" height="9.14285714" rx="2"></rect>
        <mask id="mask-2" maskContentUnits="userSpaceOnUse" maskUnits="objectBoundingBox" x="0" y="0" width="13.8461538" height="9.14285714" fill="white">
            <use xlink:href="#path-1"></use>
        </mask>
    </defs>
    <g id="Symbols" stroke="none" stroke-width="1" fill="none" fill-rule="evenodd">
        <g id="icons/light-over-dark/lock" stroke="#FFFFFF">
            <g id="Group-2" transform="translate(1.500000, 0.000000)">
                <use id="Rectangle-2" mask="url(#mask-2)" stroke-width="1.5" xlink:href="#path-1"></use>
                <path d="M3.27448918,6.68406043 C3.27448918,6.68406043 3.27448918,8.02047129 3.27448918,3.43711612 C3.27448918,-1.14623906 10.7744892,-1.14579735 10.7744892,3.43711612 L10.7744892,6.68406043 L3.27448918,6.68406043 Z" id="Path-2" stroke-width="0.75"></path>
            </g>
        </g>
    </g>
</svg>