<?xml version="1.0" encoding="UTF-8"?>
<svg version="1.1" id="Layer_1" xmlns="http://www.w3.org/2000/svg" xmlns:xlink="http://www.w3.org/1999/xlink" x="0px" y="0px"
	 viewBox="0 0 14.7 16.3" style="enable-background:new 0 0 14.7 16.3;" xml:space="preserve">
    <!-- Generator: Sketch 43.2 (39069) - http://www.bohemiancoding.com/sketch -->
    <title>Page 1</title>
    <desc>Created with Sketch.</desc>
    <defs></defs>
    <g id="Master" stroke="none" stroke-width="1" fill="none" fill-rule="evenodd">
        <g id="9.5.0.0---My-profile" transform="translate(-1263.000000, -9.000000)" fill="#003876">
            <g id="Group" transform="translate(0.000000, -2.000000)">
                <g id="Header">
                    <g id="Page-1" transform="translate(1263.000000, 11.760000)">
                        <polygon id="Fill-1" points="0 16.69283 4.194 16.69283 4.194 0.00049 0 0.00049"></polygon>
                        <polygon id="Fill-2" points="5.6 4.58101 10.572 4.58101 10.572 -0.00049 5.6 -0.00049"></polygon>
                        <polygon id="Fill-3" points="5.599 10.39045 10.571 10.39045 10.571 6.18919 5.599 6.18919"></polygon>
                        <polygon id="Fill-4" points="5.6 16.57915 10.572 16.57915 10.572 12.16621 5.6 12.16621"></polygon>
                        <polygon id="Fill-5" points="11.975 4.58101 16.17 4.58101 16.17 -0.00049 11.975 -0.00049"></polygon>
                        <polygon id="Fill-6" points="11.975 16.69283 16.17 16.69283 16.17 6.18919 11.975 6.18919"></polygon>
                    </g>
                </g>
            </g>
        </g>
    </g>
</svg>