<?xml version="1.0" encoding="utf-8"?>
<!-- Generator: Adobe Illustrator 21.0.2, SVG Export Plug-In . SVG Version: 6.00 Build 0)  -->
<svg version="1.1" id="Layer_1" xmlns="http://www.w3.org/2000/svg" xmlns:xlink="http://www.w3.org/1999/xlink" x="0px" y="0px"
	 viewBox="0 0 14.7 16.3" style="enable-background:new 0 0 14.7 16.3;" xml:space="preserve">
<style type="text/css">
	.st0{filter:url(#Adobe_OpacityMaskFilter);}
	.st1{fill:#FFFFFF;}
	.st2{mask:url(#mask-2);fill:#003876;}
</style>
<title>Page 1</title>
<desc>Created with Sketch.</desc>
<g id="Master">
	<g id="_x39_.5.0.0---My-profile" transform="translate(-1299.000000, -10.000000)">
		<g id="Group" transform="translate(0.000000, -2.000000)">
			<g id="Header">
				<g id="Page-1" transform="translate(1299.000000, 11.760000)">
					<g id="Group-3" transform="translate(0.000000, 0.573692)">
						<g id="Clip-2">
						</g>
						<defs>
							<filter id="Adobe_OpacityMaskFilter" filterUnits="userSpaceOnUse" x="0" y="-0.3" width="14.7" height="16.2">
								<feColorMatrix  type="matrix" values="1 0 0 0 0  0 1 0 0 0  0 0 1 0 0  0 0 0 1 0"/>
							</filter>
						</defs>
						<mask maskUnits="userSpaceOnUse" x="0" y="-0.3" width="14.7" height="16.2" id="mask-2">
							<g class="st0">
								<polygon id="path-1" class="st1" points="14.7,-0.3 0,-0.3 0,15.9 14.7,15.9 								"/>
							</g>
						</mask>
						<path id="Fill-1" class="st2" d="M7.3-0.3c-1,0-1.9,0.7-2.1,1.7C3,2.3,1.5,4.4,1.5,6.8v2.4l-1.3,1.3C0.1,10.7,0,10.8,0,11v1.9
							c0,0.3,0.3,0.6,0.6,0.6h4.1c0,1.3,1.2,2.5,2.6,2.5h0c1.4,0,2.6-1.2,2.6-2.5H14c0.3,0,0.6-0.3,0.6-0.6V11
							c0-0.2-0.1-0.3-0.2-0.4l-1.3-1.3V6.8c0-2.4-1.5-4.5-3.7-5.4C9.2,0.4,8.4-0.3,7.3-0.3"/>
					</g>
				</g>
			</g>
		</g>
	</g>
</g>
</svg>
